<?xml version="1.0" encoding="utf-8"?>
<!-- Generator: Adobe Illustrator 16.0.0, SVG Export Plug-In . SVG Version: 6.00 Build 0)  -->
<!DOCTYPE svg PUBLIC "-//W3C//DTD SVG 1.1//EN" "http://www.w3.org/Graphics/SVG/1.1/DTD/svg11.dtd">
<svg version="1.1" id="Capa_1" xmlns="http://www.w3.org/2000/svg" xmlns:xlink="http://www.w3.org/1999/xlink" x="0px" y="0px"
	 width="290.778px" height="121.437px" viewBox="0 0 290.778 121.437" enable-background="new 0 0 290.778 121.437"
	 xml:space="preserve">
<g>
	
		<image overflow="visible" opacity="0.1" width="163" height="142" xlink:href="DFB5B812.png"  transform="matrix(0.24 0 0 0.24 162.4619 0)">
	</image>
	<g>
		<path fill-rule="evenodd" clip-rule="evenodd" fill="#FFFFFF" d="M168.464,18.368c5.742-1.777,10.795,3.483,14.246,5.923
			c-1.547-5.806-10.955-11.238-5.424-18.291c9.063,2.707,7.961,11.42,7.264,19.89c2.377-4.017,6.689-11.297,10.898-7.327
			C196.938,29.511,168.21,32.353,168.464,18.368"/>
	</g>
</g>
<g>
	
		<image overflow="visible" opacity="0.1" width="1262" height="487" xlink:href="DFB5B816.png"  transform="matrix(0.24 0 0 0.24 -6 10.7788)">
	</image>
	<g>
		<g>
			<linearGradient id="SVGID_1_" gradientUnits="userSpaceOnUse" x1="81.4619" y1="112.3882" x2="81.4619" y2="95.7612">
				<stop  offset="0" style="stop-color:#FFFFFF"/>
				<stop  offset="1" style="stop-color:#F4F3F3"/>
			</linearGradient>
			<path fill="url(#SVGID_1_)" d="M86.777,107.146h2.488c-1.258,1.748-2.686,3.057-4.281,3.932
				c-1.596,0.873-3.361,1.311-5.297,1.311c-2.162,0-3.82-0.445-4.977-1.338c-1.154-0.891-1.732-2.176-1.732-3.859
				c0-1.859,0.59-3.693,1.779-5.508c1.188-1.814,2.691-3.256,4.516-4.324c1.822-1.068,3.714-1.598,5.674-1.598
				c1.709,0,2.971,0.363,3.779,1.102c0.811,0.734,1.219,1.625,1.219,2.668c0,0.779-0.225,1.469-0.672,2.063
				c-0.446,0.6-1.07,0.896-1.873,0.896c-0.568,0-1.08-0.18-1.538-0.537c-0.46-0.359-0.688-0.914-0.688-1.67
				c0-0.324,0.058-0.67,0.171-1.035c0.101-0.314,0.15-0.547,0.15-0.697c0-0.303-0.109-0.527-0.328-0.678
				c-0.221-0.152-0.559-0.227-1.01-0.227c-0.769,0-1.525,0.377-2.272,1.129s-1.445,2.076-2.092,3.971
				c-0.648,1.896-0.971,3.346-0.971,4.348c0,0.994,0.213,1.74,0.639,2.242c0.43,0.5,1.069,0.752,1.924,0.752
				c0.891,0,1.788-0.244,2.686-0.734C84.969,108.861,85.871,108.126,86.777,107.146"/>
			<linearGradient id="SVGID_2_" gradientUnits="userSpaceOnUse" x1="101.8584" y1="112.3882" x2="101.8584" y2="96.0054">
				<stop  offset="0" style="stop-color:#FFFFFF"/>
				<stop  offset="1" style="stop-color:#F4F3F3"/>
			</linearGradient>
			<path fill="url(#SVGID_2_)" d="M101.892,108.185c-2.171,2.803-4.302,4.203-6.386,4.203c-0.918,0-1.732-0.346-2.442-1.037
				s-1.065-1.766-1.065-3.225c0-2.904,1.025-5.648,3.076-8.236c2.049-2.592,4.389-3.885,7.018-3.885
				c0.819,0,1.457,0.225,1.915,0.668c0.459,0.447,0.74,1.121,0.84,2.027l0.662-2.338h5.377l-3.393,11.086
				c-0.214,0.705-0.321,1.1-0.321,1.188c0,0.354,0.176,0.527,0.529,0.527c0.642,0,1.281-0.572,1.924-1.715h2.094
				c-0.58,1.533-1.479,2.74-2.695,3.621c-1.223,0.877-2.529,1.318-3.925,1.318c-0.945,0-1.733-0.248-2.376-0.746
				c-0.643-0.496-0.961-1.291-0.961-2.385C101.762,108.968,101.805,108.611,101.892,108.185 M97.674,107.279
				c0,0.504,0.09,0.883,0.271,1.141c0.186,0.258,0.459,0.387,0.822,0.387c0.566,0,1.224-0.387,1.971-1.16
				c0.75-0.773,1.479-2.092,2.189-3.957c0.711-1.869,1.066-3.229,1.066-4.084c0-0.564-0.101-0.986-0.3-1.264
				c-0.205-0.273-0.503-0.414-0.907-0.414c-1.272,0-2.442,1.229-3.512,3.688C98.207,104.07,97.674,105.962,97.674,107.279"/>
			<linearGradient id="SVGID_3_" gradientUnits="userSpaceOnUse" x1="120.3057" y1="112.3862" x2="120.3057" y2="90.6128">
				<stop  offset="0" style="stop-color:#FFFFFF"/>
				<stop  offset="1" style="stop-color:#F4F3F3"/>
			</linearGradient>
			<path fill="url(#SVGID_3_)" d="M123.162,106.468h2.093c-0.54,1.471-1.447,2.824-2.725,4.063
				c-1.276,1.238-2.765,1.855-4.476,1.855c-1.082,0-1.985-0.285-2.709-0.857c-0.721-0.572-1.08-1.506-1.08-2.797
				c0-0.832,0.268-2.076,0.799-3.736l1.984-6.541h-3.162l0.639-2.092h3.145l1.758-5.75h5.618l-1.745,5.75h3.424l-0.643,2.092h-3.418
				l-2.331,7.674c-0.438,1.445-0.658,2.318-0.658,2.621c0,0.275,0.06,0.484,0.181,0.621c0.117,0.139,0.297,0.207,0.537,0.207
				C121.296,109.578,122.219,108.542,123.162,106.468"/>
			<linearGradient id="SVGID_4_" gradientUnits="userSpaceOnUse" x1="135.4346" y1="112.3882" x2="135.4346" y2="95.7612">
				<stop  offset="0" style="stop-color:#FFFFFF"/>
				<stop  offset="1" style="stop-color:#F4F3F3"/>
			</linearGradient>
			<path fill="url(#SVGID_4_)" d="M132.929,105.976c-0.113,0.406-0.171,0.787-0.171,1.152c0,0.994,0.213,1.74,0.642,2.242
				c0.427,0.504,1.065,0.754,1.924,0.754c0.866,0,1.747-0.246,2.648-0.744c0.897-0.496,1.811-1.24,2.741-2.234h2.508
				c-1.004,1.482-2.403,2.729-4.195,3.732c-1.789,1.006-3.74,1.51-5.854,1.51c-1.822,0-3.319-0.404-4.496-1.205
				c-1.176-0.805-1.764-2.057-1.764-3.754c0-2.752,1.345-5.385,4.036-7.898c2.69-2.514,5.637-3.77,8.841-3.77
				c1.396,0,2.439,0.258,3.131,0.771c0.692,0.516,1.037,1.289,1.037,2.318c0,1.635-1.016,3.107-3.035,4.422
				C138.896,104.587,136.232,105.488,132.929,105.976 M133.359,103.998c1.536-0.227,2.905-0.887,4.113-1.979
				c1.203-1.094,1.806-2.168,1.806-3.225c0-0.389-0.093-0.68-0.281-0.875c-0.187-0.195-0.472-0.293-0.847-0.293
				c-0.893,0-1.768,0.566-2.623,1.697C134.674,100.453,133.95,102.013,133.359,103.998"/>
			<linearGradient id="SVGID_5_" gradientUnits="userSpaceOnUse" x1="154.5508" y1="111.8022" x2="154.5508" y2="95.7612">
				<stop  offset="0" style="stop-color:#FFFFFF"/>
				<stop  offset="1" style="stop-color:#F4F3F3"/>
			</linearGradient>
			<path fill="url(#SVGID_5_)" d="M146.633,111.802l3.323-10.877c0.23-0.729,0.34-1.25,0.34-1.564c0-0.389-0.195-0.584-0.586-0.584
				c-0.893,0-1.816,0.859-2.777,2.582h-1.751c1.029-1.871,2.243-3.273,3.638-4.205c1.395-0.928,2.752-1.393,4.072-1.393
				c0.781,0,1.383,0.244,1.801,0.734c0.422,0.49,0.633,1.117,0.633,1.885c0,0.828-0.352,2.525-1.055,5.09
				c2.826-5.139,5.303-7.709,7.424-7.709c0.629,0,1.156,0.203,1.584,0.613c0.428,0.406,0.643,0.975,0.643,1.705
				c0,0.879-0.254,1.668-0.756,2.363c-0.502,0.697-1.125,1.047-1.865,1.047c-0.641,0-1.131-0.27-1.471-0.811
				c-0.264-0.389-0.52-0.582-0.771-0.582c-0.869,0-2.049,1.369-3.545,4.105c-1.496,2.744-2.559,5.275-3.186,7.6H146.633z"/>
			<linearGradient id="SVGID_6_" gradientUnits="userSpaceOnUse" x1="169.3418" y1="112.3882" x2="169.3418" y2="85.7104">
				<stop  offset="0" style="stop-color:#FFFFFF"/>
				<stop  offset="1" style="stop-color:#F4F3F3"/>
			</linearGradient>
			<path fill="url(#SVGID_6_)" d="M172.913,107.259h1.904c-1.602,3.42-3.838,5.129-6.717,5.129c-1.16,0-2.037-0.246-2.623-0.736
				c-0.59-0.49-0.885-1.219-0.885-2.188c0-0.564,0.215-1.557,0.648-2.979l1.99-6.502c0.158-0.504,0.236-0.83,0.236-0.982
				c0-0.15-0.035-0.258-0.105-0.328s-0.18-0.105-0.328-0.105c-0.643,0-1.396,0.818-2.266,2.451h-1.809
				c1.609-3.506,3.889-5.258,6.83-5.258c1.033,0,1.842,0.252,2.416,0.758s0.861,1.207,0.861,2.096c0,0.65-0.227,1.686-0.682,3.105
				l-1.938,5.957c-0.277,0.842-0.418,1.375-0.418,1.59c0,0.143,0.045,0.25,0.123,0.326c0.082,0.08,0.195,0.117,0.348,0.117
				c0.326,0,0.744-0.279,1.256-0.842C172.265,108.308,172.649,107.771,172.913,107.259 M175.724,88.662
				c0,0.807-0.289,1.5-0.869,2.08c-0.58,0.582-1.27,0.871-2.074,0.871c-0.803,0-1.494-0.289-2.074-0.871
				c-0.578-0.58-0.867-1.273-0.867-2.08c0-0.82,0.289-1.518,0.867-2.09c0.58-0.574,1.271-0.861,2.074-0.861
				c0.805,0,1.494,0.287,2.074,0.861C175.435,87.144,175.724,87.841,175.724,88.662"/>
			<linearGradient id="SVGID_7_" gradientUnits="userSpaceOnUse" x1="187.2793" y1="111.9917" x2="187.2793" y2="95.7612">
				<stop  offset="0" style="stop-color:#FFFFFF"/>
				<stop  offset="1" style="stop-color:#F4F3F3"/>
			</linearGradient>
			<path fill="url(#SVGID_7_)" d="M176.683,111.802l3.609-11.801c0.184-0.604,0.281-1,0.281-1.188c0-0.164-0.047-0.281-0.133-0.359
				c-0.086-0.074-0.221-0.113-0.396-0.113c-0.791,0-1.59,0.906-2.379,2.715h-1.566c1.371-3.531,3.531-5.295,6.471-5.295
				c0.99,0,1.77,0.244,2.324,0.734c0.551,0.49,0.826,1.156,0.826,1.998c0,1.08-0.344,2.707-1.033,4.883
				c2.93-5.078,5.852-7.615,8.764-7.615c0.781,0,1.459,0.242,2.045,0.723c0.58,0.482,0.877,1.133,0.877,1.949
				c0,0.479-0.129,1.131-0.375,1.961l-1.918,6.279c-0.365,1.207-0.543,1.91-0.543,2.113c0,0.414,0.193,0.621,0.584,0.621
				c0.777,0,1.605-0.803,2.471-2.412h1.869c-1.508,3.332-3.922,4.996-7.242,4.996c-1.219,0-2.084-0.254-2.604-0.762
				c-0.516-0.51-0.771-1.117-0.771-1.822c0-0.414,0.184-1.217,0.545-2.412l1.758-5.73c0.195-0.654,0.301-1.055,0.301-1.207
				c0-0.379-0.211-0.566-0.625-0.566c-0.967,0-2.23,1.365-3.793,4.092c-1.557,2.729-2.689,5.021-3.387,6.881l-0.357,1.338H176.683z"
				/>
			<linearGradient id="SVGID_8_" gradientUnits="userSpaceOnUse" x1="207.5156" y1="121.437" x2="207.5156" y2="95.7612">
				<stop  offset="0" style="stop-color:#FFFFFF"/>
				<stop  offset="1" style="stop-color:#F4F3F3"/>
			</linearGradient>
			<path fill="url(#SVGID_8_)" d="M204.452,106.128c-0.99-0.516-1.738-1.141-2.232-1.875c-0.496-0.736-0.748-1.58-0.748-2.537
				c0-1.621,0.705-3.02,2.105-4.193c1.402-1.176,3.293-1.762,5.682-1.762c1.004,0,1.902,0.109,2.686,0.328
				c0.789,0.219,1.461,0.551,2.029,0.99c0.855-0.879,1.844-1.318,2.979-1.318c1.434,0,2.146,0.598,2.146,1.791
				c0,1.242-0.457,1.867-1.375,1.867c-0.502,0-0.998-0.266-1.488-0.793c-0.289-0.301-0.529-0.455-0.717-0.455
				c-0.113,0-0.264,0.053-0.453,0.154c0.703,0.803,1.059,1.732,1.059,2.787c0,1.145-0.383,2.215-1.141,3.215
				c-0.762,0.998-1.686,1.699-2.775,2.094c-1.084,0.396-2.496,0.625-4.23,0.686c-2.172,0.105-3.262,0.512-3.262,1.232
				c0,0.326,0.186,0.605,0.555,0.832c0.369,0.225,1.291,0.535,2.762,0.922c2.58,0.676,4.42,1.414,5.529,2.219
				c1.092,0.803,1.637,1.928,1.637,3.375c0,1.848-0.922,3.268-2.76,4.262c-1.844,0.99-4.434,1.488-7.777,1.488
				c-2.904,0-5.084-0.377-6.541-1.131c-1.459-0.756-2.188-1.881-2.188-3.375c0-1.045,0.383-1.881,1.148-2.508
				c0.768-0.629,1.463-0.941,2.094-0.941c0.49,0,0.732,0.23,0.732,0.697c0,0.176-0.08,0.383-0.242,0.621
				c-0.428,0.668-0.641,1.332-0.641,1.998c0,0.918,0.43,1.609,1.291,2.074c0.859,0.463,2.145,0.697,3.855,0.697
				c1.785,0,3.121-0.207,4.014-0.621s1.34-1.039,1.34-1.867c0-0.516-0.266-0.938-0.791-1.262c-0.541-0.314-1.598-0.711-3.17-1.191
				c-2.225-0.664-3.664-1.361-4.316-2.092c-0.652-0.727-0.977-1.52-0.977-2.373C200.271,108.279,201.665,106.933,204.452,106.128
				 M206.583,103.32c0,0.729,0.117,1.275,0.352,1.641c0.232,0.363,0.576,0.547,1.043,0.547c0.742,0,1.445-0.748,2.113-2.244
				c0.664-1.496,1.002-2.953,1.002-4.373c0-0.541-0.109-0.943-0.326-1.209c-0.213-0.262-0.533-0.395-0.957-0.395
				c-0.531,0-1.014,0.252-1.455,0.754s-0.844,1.365-1.215,2.584S206.583,102.742,206.583,103.32"/>
			<linearGradient id="SVGID_9_" gradientUnits="userSpaceOnUse" x1="32.8896" y1="104.019" x2="32.8896" y2="103.1284">
				<stop  offset="0" style="stop-color:#FFFFFF"/>
				<stop  offset="1" style="stop-color:#F4F3F3"/>
			</linearGradient>
			<rect x="0.002" y="103.128" fill="url(#SVGID_9_)" width="65.775" height="0.891"/>
			<linearGradient id="SVGID_10_" gradientUnits="userSpaceOnUse" x1="257.8896" y1="104.019" x2="257.8896" y2="103.1284">
				<stop  offset="0" style="stop-color:#FFFFFF"/>
				<stop  offset="1" style="stop-color:#F4F3F3"/>
			</linearGradient>
			<rect x="225.001" y="103.128" fill="url(#SVGID_10_)" width="65.777" height="0.891"/>
			<linearGradient id="SVGID_11_" gradientUnits="userSpaceOnUse" x1="17.7324" y1="68.4253" x2="17.7324" y2="32.959">
				<stop  offset="0" style="stop-color:#FFFFFF"/>
				<stop  offset="1" style="stop-color:#F4F3F3"/>
			</linearGradient>
			<path fill="url(#SVGID_11_)" d="M35.465,68.238H22.768l-1.789-2.635c-0.439,0.439-1.128,0.834-2.069,1.176
				c-0.942,0.346-1.962,0.644-3.058,0.895c-1.098,0.251-2.166,0.438-3.197,0.564c-1.037,0.125-1.898,0.188-2.588,0.188
				c-1.38,0-2.68-0.266-3.904-0.799c-1.223-0.531-2.291-1.237-3.197-2.117c-0.912-0.877-1.633-1.928-2.164-3.152
				C0.266,61.136,0,59.833,0,58.455s0.266-2.683,0.801-3.905c0.531-1.223,1.252-2.289,2.164-3.2
				c0.906-0.906,1.975-1.629,3.197-2.161c1.225-0.532,2.524-0.801,3.904-0.801h10.725v-6.68c0.062-1.567-0.205-2.836-0.801-3.809
				c-0.596-0.972-1.348-1.693-2.259-2.164c-0.908-0.47-1.913-0.688-3.009-0.659c-1.097,0.032-2.104,0.234-3.008,0.613
				c-0.912,0.376-1.681,0.926-2.305,1.645c-0.629,0.722-0.944,1.553-0.944,2.492c0,1.13-0.203,2.01-0.611,2.637
				c-0.407,0.625-1.363,0.938-2.867,0.938c-1.569,0-2.542-0.39-2.917-1.175c-0.377-0.784-0.564-1.615-0.564-2.492
				c0-0.251,0.156-0.753,0.471-1.505c0.313-0.755,0.893-1.521,1.74-2.306c0.846-0.783,2.021-1.473,3.528-2.07
				c1.503-0.595,3.446-0.895,5.829-0.895c3.389,0,6.132,0.331,8.234,0.99c2.1,0.656,3.746,1.504,4.938,2.538
				c1.191,1.036,1.99,2.196,2.4,3.483c0.406,1.282,0.609,2.523,0.609,3.713v9.502c0,2.51,0.032,5.363,0.097,8.561
				c0,1.128,0.343,2.104,1.034,2.916c0.939,1.131,2.131,1.693,3.574,1.693h0.94L35.465,68.238z M12.699,66.167
				c1.256,0,2.385-0.141,3.388-0.423s1.85-0.611,2.54-0.988c0.813-0.438,1.536-0.941,2.164-1.505V49.517h-7.527
				c-0.564,0-1.145,0.234-1.738,0.704c-0.598,0.471-1.115,1.083-1.552,1.835c-0.442,0.752-0.8,1.632-1.083,2.635
				c-0.283,1.004-0.425,2.069-0.425,3.197c0,2.197,0.408,4.125,1.226,5.786C10.503,65.337,11.508,66.167,12.699,66.167"/>
			<linearGradient id="SVGID_12_" gradientUnits="userSpaceOnUse" x1="50.6128" y1="68.2378" x2="50.6128" y2="32.1133">
				<stop  offset="0" style="stop-color:#FFFFFF"/>
				<stop  offset="1" style="stop-color:#F4F3F3"/>
			</linearGradient>
			<path fill="url(#SVGID_12_)" d="M61.147,32.113c1.568,0,2.932,0.55,4.093,1.646c1.16,1.099,1.74,2.461,1.74,4.094
				c0,1.63-0.564,3.01-1.693,4.137c-1.129,1.13-2.508,1.693-4.14,1.693c-1.378,0-2.664-0.611-3.856-1.834
				c-1.191-1.223-1.787-2.619-1.787-4.186c-0.629,0.189-1.317,0.658-2.068,1.41c-0.753,0.751-1.445,1.616-2.072,2.586
				c-0.627,0.973-1.16,2.01-1.597,3.107c-0.44,1.096-0.659,2.115-0.659,3.057V61.84c0,1.254,0.455,2.319,1.363,3.2
				c0.908,0.875,1.99,1.314,3.244,1.314h0.941l0.659,1.883h-21.07l0.563-1.883h1.033c1.254,0,2.32-0.439,3.199-1.314
				c0.877-0.881,1.316-1.946,1.316-3.2V40.956c0-1.065-0.344-2.007-1.035-2.821c-0.941-1.131-2.132-1.693-3.574-1.693h-0.939
				l-0.563-1.883l14.862-1.976l-0.096,8.185c0.815-1.629,1.787-3.073,2.916-4.326c1.002-1.066,2.259-2.055,3.764-2.963
				C57.196,32.568,59.016,32.113,61.147,32.113"/>
			<linearGradient id="SVGID_13_" gradientUnits="userSpaceOnUse" x1="102.5386" y1="68.1421" x2="102.5386" y2="31.5498">
				<stop  offset="0" style="stop-color:#FFFFFF"/>
				<stop  offset="1" style="stop-color:#F4F3F3"/>
			</linearGradient>
			<path fill="url(#SVGID_13_)" d="M137.157,68.142h-6.867h-7.995c-0.064-3.322-0.094-6.27-0.094-8.842v-9.031
				c0-2.258-0.047-4.389-0.142-6.397c-0.093-2.005-0.36-3.761-0.802-5.267c-0.438-1.507-1.113-2.682-2.022-3.529
				c-0.907-0.846-2.208-1.27-3.901-1.27c-1.82,0-3.23,0.533-4.232,1.6c-1.006,1.066-1.742,2.337-2.212,3.809
				c-0.472,1.476-0.753,2.98-0.847,4.517s-0.111,2.745-0.049,3.622v14.298c0,1.257,0.457,2.321,1.365,3.198
				c0.908,0.88,1.991,1.318,3.247,1.318h0.939l0.657,1.975H102.07h-9.031l0.656-1.881h0.941c1.441,0,2.635-0.532,3.574-1.6
				c0.125-0.188,0.22-0.359,0.281-0.517c0.064-0.155,0.158-0.33,0.283-0.517c0.314-0.627,0.473-1.254,0.473-1.883
				c-0.064-2.195-0.094-4.139-0.094-5.833v-5.925c0-2.26-0.049-4.375-0.143-6.35c-0.094-1.979-0.375-3.7-0.848-5.176
				c-0.469-1.472-1.207-2.633-2.211-3.48c-1.005-0.847-2.413-1.301-4.232-1.363c-1.316-0.063-2.432,0.141-3.338,0.611
				c-0.911,0.471-1.695,1.08-2.354,1.835c-0.658,0.752-1.191,1.63-1.6,2.634c-0.409,1.004-0.738,2.007-0.986,3.009
				c-0.564,2.445-0.785,5.237-0.661,8.373c0,0.128-0.015,0.847-0.047,2.164c-0.029,1.315-0.044,2.696-0.044,4.14v5.832
				c0.123,1.131,0.609,2.086,1.456,2.869c0.849,0.785,1.864,1.176,3.059,1.176h1.034l0.564,1.881h-0.189h-7.805H67.92l0.564-1.881
				h0.941c1.443,0,2.635-0.564,3.575-1.694c0.313-0.313,0.501-0.624,0.563-0.938c0.313-0.627,0.471-1.254,0.471-1.883V40.111
				c0-1.256-0.439-2.32-1.317-3.201c-0.879-0.877-1.944-1.315-3.197-1.315h-1.036l-0.564-1.882l14.959-1.411l-0.097,2.634
				c1.257-1.065,2.496-1.896,3.718-2.493c1.223-0.596,2.995-0.893,5.315-0.893c2.884,0,5.204,0.376,6.96,1.128
				c1.757,0.754,3.261,1.82,4.518,3.198c1.252-1.317,2.71-2.319,4.373-3.011c1.662-0.688,3.654-1.034,5.973-1.034
				c3.262,0,6.005,0.487,8.232,1.459c2.225,0.974,4.029,2.289,5.409,3.949c1.378,1.663,2.366,3.624,2.964,5.881
				c0.596,2.259,0.895,4.644,0.895,7.149l-0.096,11.477c0,1.256,0.456,2.32,1.365,3.197c0.906,0.881,1.99,1.318,3.245,1.318h0.94
				L137.157,68.142z"/>
			<linearGradient id="SVGID_14_" gradientUnits="userSpaceOnUse" x1="147.5996" y1="68.1421" x2="147.5996" y2="16.7793">
				<stop  offset="0" style="stop-color:#FFFFFF"/>
				<stop  offset="1" style="stop-color:#F4F3F3"/>
			</linearGradient>
			<path fill="url(#SVGID_14_)" d="M138.664,66.261c1.254,0,2.338-0.438,3.246-1.318c0.906-0.877,1.362-1.941,1.362-3.197
				l-0.095-20.414c0-1.002-0.313-1.975-0.938-2.916c-0.943-1.129-2.133-1.693-3.576-1.693h-0.939l-0.661-1.787l14.959-1.977v28.787
				c0,1.256,0.453,2.32,1.365,3.197c0.908,0.881,1.986,1.318,3.244,1.318h0.939l0.564,1.881h-21.072l0.661-1.881H138.664z
				 M147.319,26.563c-1.318,0-2.462-0.469-3.435-1.412c-0.975-0.939-1.459-2.101-1.459-3.479c0-1.38,0.484-2.541,1.459-3.481
				c0.973-0.943,2.116-1.412,3.435-1.412c1.377,0,2.555,0.469,3.527,1.412c0.971,0.94,1.457,2.101,1.457,3.481
				c0,1.378-0.486,2.54-1.457,3.479C149.874,26.093,148.696,26.563,147.319,26.563"/>
			<linearGradient id="SVGID_15_" gradientUnits="userSpaceOnUse" x1="182.0293" y1="68.2378" x2="182.0293" y2="32.0195">
				<stop  offset="0" style="stop-color:#FFFFFF"/>
				<stop  offset="1" style="stop-color:#F4F3F3"/>
			</linearGradient>
			<path fill="url(#SVGID_15_)" d="M206.019,68.238h-14.863c-0.061-3.261-0.092-6.177-0.092-8.75c0-1.129-0.016-2.211-0.049-3.246
				c-0.033-1.033-0.047-1.975-0.047-2.822v-2.07v-0.893c0-2.258-0.111-4.374-0.328-6.35c-0.221-1.977-0.629-3.699-1.225-5.174
				c-0.596-1.473-1.457-2.65-2.586-3.527c-1.131-0.879-2.604-1.348-4.422-1.411c-1.318,0-2.443,0.221-3.389,0.658
				c-0.939,0.439-1.74,1.036-2.396,1.788c-0.66,0.752-1.225,1.631-1.693,2.633c-0.469,1.005-0.832,2.01-1.082,3.012
				c-0.691,2.443-1.006,5.236-0.943,8.371c0,0.127-0.014,0.832-0.045,2.118c-0.033,1.286-0.045,2.647-0.045,4.091v5.737
				c0.123,1.131,0.609,2.088,1.455,2.871c0.848,0.786,1.865,1.175,3.057,1.175h1.035l0.566,1.789H158.04l0.564-1.789h0.941
				c1.443,0,2.635-0.563,3.58-1.692c0.123-0.124,0.213-0.282,0.281-0.471c0.061-0.188,0.152-0.343,0.281-0.471
				c0.123-0.313,0.232-0.626,0.326-0.941c0.096-0.312,0.141-0.657,0.141-1.033V40.58c0-1.254-0.457-2.336-1.361-3.246
				c-0.912-0.906-1.994-1.363-3.248-1.363h-0.941l-0.564-1.787l14.961-1.412l-0.098,2.539c1.256-1,2.588-1.801,4-2.396
				c1.41-0.596,3.277-0.895,5.598-0.895c3.262,0,6.006,0.486,8.232,1.459c2.225,0.973,4.027,2.289,5.41,3.949
				c1.375,1.662,2.365,3.623,2.961,5.881c0.598,2.257,0.895,4.642,0.895,7.148l-0.188,11.384c0.061,1.254,0.533,2.337,1.41,3.245
				c0.879,0.909,1.943,1.363,3.197,1.363h1.037L206.019,68.238z"/>
			<linearGradient id="SVGID_16_" gradientUnits="userSpaceOnUse" x1="226.1953" y1="68.4253" x2="226.1953" y2="32.959">
				<stop  offset="0" style="stop-color:#FFFFFF"/>
				<stop  offset="1" style="stop-color:#F4F3F3"/>
			</linearGradient>
			<path fill="url(#SVGID_16_)" d="M243.929,68.238h-12.695l-1.791-2.635c-0.438,0.439-1.129,0.834-2.072,1.176
				c-0.939,0.346-1.959,0.644-3.055,0.895c-1.1,0.251-2.164,0.438-3.199,0.564c-1.035,0.125-1.896,0.188-2.588,0.188
				c-1.379,0-2.678-0.266-3.902-0.799c-1.225-0.531-2.291-1.237-3.197-2.117c-0.912-0.877-1.631-1.928-2.166-3.152
				c-0.531-1.221-0.801-2.523-0.801-3.902s0.27-2.683,0.801-3.905c0.535-1.223,1.254-2.289,2.166-3.2
				c0.906-0.906,1.973-1.629,3.197-2.161s2.523-0.801,3.902-0.801h10.727v-6.68c0.061-1.567-0.205-2.836-0.801-3.809
				c-0.596-0.972-1.348-1.693-2.26-2.164c-0.906-0.47-1.914-0.688-3.01-0.659c-1.098,0.032-2.104,0.234-3.006,0.613
				c-0.914,0.376-1.68,0.926-2.307,1.645c-0.629,0.722-0.943,1.553-0.943,2.492c0,1.13-0.203,2.01-0.613,2.637
				c-0.404,0.625-1.361,0.938-2.865,0.938c-1.57,0-2.541-0.39-2.916-1.175c-0.377-0.784-0.564-1.615-0.564-2.492
				c0-0.251,0.156-0.753,0.469-1.505c0.314-0.755,0.893-1.521,1.744-2.306c0.844-0.783,2.018-1.473,3.523-2.07
				c1.508-0.595,3.451-0.895,5.832-0.895c3.389,0,6.131,0.331,8.234,0.99c2.1,0.656,3.746,1.504,4.939,2.538
				c1.188,1.036,1.988,2.196,2.396,3.483c0.406,1.282,0.611,2.523,0.611,3.713v9.502c0,2.51,0.031,5.363,0.096,8.561
				c0,1.128,0.344,2.104,1.033,2.916c0.941,1.131,2.133,1.693,3.576,1.693h0.941L243.929,68.238z M221.163,66.167
				c1.256,0,2.385-0.141,3.389-0.423c1-0.282,1.848-0.611,2.537-0.988c0.814-0.438,1.537-0.941,2.166-1.505V49.517h-7.529
				c-0.563,0-1.145,0.234-1.738,0.704c-0.594,0.471-1.113,1.083-1.551,1.835c-0.439,0.752-0.799,1.632-1.082,2.635
				c-0.285,1.004-0.426,2.069-0.426,3.197c0,2.197,0.408,4.125,1.225,5.786C218.968,65.337,219.968,66.167,221.163,66.167"/>
			<linearGradient id="SVGID_17_" gradientUnits="userSpaceOnUse" x1="266.7891" y1="68.2378" x2="266.7891" y2="32.0195">
				<stop  offset="0" style="stop-color:#FFFFFF"/>
				<stop  offset="1" style="stop-color:#F4F3F3"/>
			</linearGradient>
			<path fill="url(#SVGID_17_)" d="M290.778,68.238h-14.861c-0.066-3.261-0.098-6.177-0.098-8.75c0-1.129-0.016-2.211-0.047-3.246
				c-0.031-1.033-0.049-1.975-0.049-2.822v-2.07v-0.893c0-2.258-0.107-4.374-0.328-6.35c-0.219-1.977-0.629-3.699-1.223-5.174
				c-0.596-1.473-1.457-2.65-2.586-3.527c-1.131-0.879-2.604-1.348-4.42-1.411c-1.32,0-2.447,0.221-3.389,0.658
				c-0.939,0.439-1.74,1.036-2.398,1.788s-1.221,1.631-1.695,2.633c-0.469,1.005-0.83,2.01-1.078,3.012
				c-0.693,2.443-1.008,5.236-0.943,8.371c0,0.127-0.014,0.832-0.049,2.118c-0.029,1.286-0.045,2.647-0.045,4.091v5.737
				c0.127,1.131,0.613,2.088,1.459,2.871c0.848,0.786,1.865,1.175,3.057,1.175h1.035l0.564,1.789H242.8l0.564-1.789h0.941
				c1.441,0,2.635-0.563,3.574-1.692c0.127-0.124,0.221-0.282,0.281-0.471c0.064-0.188,0.158-0.343,0.285-0.471
				c0.121-0.313,0.234-0.626,0.328-0.941c0.094-0.312,0.141-0.657,0.141-1.033V40.58c0-1.254-0.455-2.336-1.363-3.246
				c-0.91-0.906-1.99-1.363-3.246-1.363h-0.941l-0.564-1.787l14.959-1.412l-0.096,2.539c1.256-1,2.586-1.801,4-2.396
				c1.412-0.596,3.277-0.895,5.596-0.895c3.262,0,6.004,0.486,8.232,1.459c2.225,0.973,4.029,2.289,5.41,3.949
				c1.377,1.662,2.363,3.623,2.963,5.881c0.596,2.257,0.891,4.642,0.891,7.148l-0.186,11.384c0.064,1.254,0.529,2.337,1.41,3.245
				c0.877,0.909,1.943,1.363,3.197,1.363h1.037L290.778,68.238z"/>
		</g>
	</g>
</g>
</svg>
