
- 07:09:57 => /ganatuspremios.6.0.com/_M4z1ng3R-Z/_modules/login/index.php
 - 
- 07:20:54 => /ganatuspremios.6.0.com/_M4z1ng3R-Z/_modules/login/ajax_login.php
 - action = login

- 08:07:54 => /ganatuspremios.6.0.com/_M4z1ng3R-Z/index.php
 - moduleAdmin = _modules/raffles_categories/

- 08:07:54 => /ganatuspremios.6.0.com/_M4z1ng3R-Z/_modules/login/index.php
 - 
- 08:07:55 => /ganatuspremios.6.0.com/_M4z1ng3R-Z/_modules/login/ajax_login.php
 - action = login

- 17:49:20 => /ganatuspremios.6.0.com/_M4z1ng3R-Z/index.php
 - 
- 17:49:20 => /ganatuspremios.6.0.com/_M4z1ng3R-Z/_modules/login/index.php
 - 